com\erick\service\MainMenu.class
com\erick\service\OlahNilai.class
com\erick\service\ReadWriteFile.class
com\erick\Main.class
com\erick\controller\ReadWriteFileController.class
com\erick\service\CloseMenu.class
com\erick\service\WriteFile.class
com\erick\service\Menu.class
com\erick\service\ProsesOlahNilai.class
com\erick\model\KelasNilai.class
